pymadx.Tfs.Load> normal file
Momentum 200.0 GeV/c
MTN.X0400003: You exceeded the maximal BL of 7.33Tm, but you tried to set 8.41Tm.
We will set the current to its maximal value 1365.0A.
MTN.X0400007: You exceeded the maximal BL of 7.33Tm, but you tried to set 8.41Tm.
We will set the current to its maximal value 1365.0A.
MTN.X0400003 	 1365.00 A
MTN.X0400007 	 1365.00 A
MSN.X0410022 	 -1160.70 A
MSN.X0410029 	 -1458.59 A
QSL.X0410033 	 -717.48 A
QNL.X0410040 	 -67.14 A
QNL.X0410050 	 -93.57 A
MBNV.X0410055 	 942.42 A
MBNV.X0410061 	 942.42 A
MBNV.X0410067 	 942.42 A
MBNV.X0410073 	 942.42 A
QNL.X0410078 	 -104.12 A
QNL.X0410096 	 249.37 A
QTS.X0410106 	 -385.62 A
MBXHC.X0410117 	 -1014.98 A
MBXHC.X0410121 	 -1014.98 A
MBXHC.X0410124 	 -1014.98 A
LSX.X0410129 	 0.00 A
MCXCA.X0410130 	 0.00 A
MBXHC.X0410132 	 -1014.98 A
MBXHC.X0410135 	 -1014.98 A
MBXHC.X0410139 	 -1014.98 A
QTS.X0410151 	 -385.62 A
QNL.X0410160 	 249.43 A
QNL.X0410178 	 104.49 A
LSX.X0410193 	 -0.00 A
MCXCA.X0410194 	 0.00 A
MCXCA.X0410195 	 0.00 A
QNL.X0410206 	 104.49 A
QNL.X0410224 	 249.43 A
QTS.X0410234 	 -385.62 A
QTS.X0410279 	 -385.62 A
QNL.X0410288 	 249.37 A
QNL.X0410306 	 -104.12 A
MBNV.X0410311 	 944.10 A
MBNV.X0410317 	 944.10 A
MBNV.X0410323 	 944.10 A
MBNV.X0410329 	 944.10 A
QNL.X0410334 	 -104.12 A
QNL.X0410352 	 249.37 A
QTS.X0410362 	 394.72 A
MBNH.X0410375 	 -992.94 A
MBNH.X0410380 	 -992.94 A
MCXCA.X0410385 	 0.00 A
MBNH.X0410388 	 -992.94 A
MBNH.X0410393 	 -992.94 A
QTS.X0410397 	 -126.58 A
QNL.X0410426 	 -215.28 A
QWL.X0410434 	 272.18 A
QWL.X0410453 	 282.26 A
QNL.X0410461 	 -211.04 A
MCXCA.X0410473 	 0.00 A
MCXCA.X0410474 	 -0.00 A
