@ NAME             %06s "SURVEY"
@ TYPE             %06s "SURVEY"
@ TITLE            %07s "B2MCONV"
@ ORIGIN           %16s "5.05.01 Linux 64"
@ DATE             %08s "30/10/19"
@ TIME             %08s "14.19.59"
* NAME                             S               L           ANGLE               X               Y               Z           THETA             PHI             PSI      GLOBALTILT    SLOT_ID ASSEMBLY_ID 
$ %s                             %le             %le             %le             %le             %le             %le             %le             %le             %le             %le         %d         %d 
 "B2MCONV$START"         0.000000000     0.000000000     0.000000000  -669.234140000  2441.574200000  4590.727900000    -0.116550327    -0.000370000     0.000000000     0.000000000          0          0
 "DRIFT_0"               1.101000000     1.101000000     0.000000000  -669.362171578  2441.573792630  4591.821430406    -0.116550327    -0.000370000     0.000000000     0.000000000          0          0
 "M1_BEGIN_VAC"          1.101000000     0.000000000     0.000000000  -669.362171578  2441.573792630  4591.821430406    -0.116550327    -0.000370000     0.000000000     0.000000000          0          0
 "DRIFT_1"               1.350000000     0.249000000     0.000000000  -669.391126948  2441.573700500  4592.068741097    -0.116550327    -0.000370000     0.000000000     0.000000000          0          0
 "MTNH020003"            4.950000000     3.600000000    -0.000000000  -669.809758811  2441.572368500  4595.644317357    -0.116550327    -0.000370000     0.000000000    -0.000244346          0          0
 "DRIFT_2"               5.550000000     0.600000000     0.000000000  -669.879530788  2441.572146500  4596.240246734    -0.116550327    -0.000370000     0.000000000     0.000000000          0          0
 "MTNH020007"            9.150000000     3.600000000    -0.000000000  -670.298162651  2441.570814500  4599.815822994    -0.116550327    -0.000370000     0.000000000    -0.000244346          0          0
 "DRIFT_3"              21.417000000    12.267000000     0.000000000  -671.724650722  2441.566275710  4611.999599099    -0.116550327    -0.000370000     0.000000000     0.000000000          0          0
 "M2_END_VAC"           21.417000000     0.000000000     0.000000000  -671.724650722  2441.566275710  4611.999599099    -0.116550327    -0.000370000     0.000000000     0.000000000          0          0
 "DRIFT_4"              25.375000000     3.958000000     0.000000000  -672.184913197  2441.564811250  4615.930746553    -0.116550327    -0.000370000     0.000000000     0.000000000          0          0
 "M3_XCON022026"        25.375000000     0.000000000     0.000000000  -672.184913197  2441.564811250  4615.930746553    -0.116550327    -0.000370000     0.000000000     0.000000000          0          0
 "DRIFT_5"              25.405000000     0.030000000     0.000000000  -672.188401796  2441.564800150  4615.960543022    -0.116550327    -0.000370000     0.000000000     0.000000000          0          0
 "M4_BEGIN_VAC"         25.405000000     0.000000000     0.000000000  -672.188401796  2441.564800150  4615.960543022    -0.116550327    -0.000370000     0.000000000     0.000000000          0          0
 "DRIFT_6"              25.650000000     0.245000000     0.000000000  -672.216892020  2441.564709500  4616.203880851    -0.116550327    -0.000370000     0.000000000     0.000000000          0          0
 "MSNH022027"           28.850001045     3.200001045     0.002800000  -672.593458472  2441.563526596  4619.381646781    -0.119350327    -0.000369314    -0.000001035    -0.000244346          0          0
 "DRIFT_7"              29.200001045     0.350000000     0.000000000  -672.635131982  2441.563397336  4619.729156928    -0.119350327    -0.000369314    -0.000001035    -0.000001035          0          0
 "MSNH022031"           32.400002679     3.200001633     0.003500000  -673.021706512  2441.562216900  4622.905720911    -0.122850327    -0.000368457    -0.000002326    -0.000244346          0          0
 "DRIFT_8"              32.795002679     0.395000000     0.000000000  -673.070110419  2441.562071360  4623.297743921    -0.122850327    -0.000368457    -0.000002326    -0.000002326          0          0
 "QNL.022034"           35.785002679     2.990000000     0.000000000  -673.436509618  2441.560969674  4626.265209239    -0.122850327    -0.000368457    -0.000002326    -0.000002326          0          0
 "DRIFT_9"              39.655002679     3.870000000     0.000000000  -673.910745371  2441.559543745  4630.106042276    -0.122850327    -0.000368457    -0.000002326    -0.000002326          0          0
 "QNL.022041"           42.645002679     2.990000000     0.000000000  -674.277144570  2441.558442059  4633.073507594    -0.122850327    -0.000368457    -0.000002326    -0.000002326          0          0
 "DRIFT_10"             47.245002679     4.600000000     0.000000000  -674.840835645  2441.556747157  4637.638838852    -0.122850327    -0.000368457    -0.000002326    -0.000002326          0          0
 "QNL.022049"           50.235002679     2.990000000     0.000000000  -675.207234844  2441.555645471  4640.606304170    -0.122850327    -0.000368457    -0.000002326    -0.000002326          0          0
 "DRIFT_11"             50.785002679     0.550000000     0.000000000  -675.274632690  2441.555442820  4641.152158995    -0.122850327    -0.000368457    -0.000002326    -0.000002326          0          0
 "MBNV022053"           55.785012413     5.000009735    -0.006835700  -675.887333430  2441.570689761  4646.114453357    -0.122848657     0.006467243    -0.000002331     1.570551981          0          0
 "DRIFT_12"             56.445012413     0.660000000     0.000000000  -675.968208065  2441.574958112  4646.769465627    -0.122848657     0.006467243    -0.000002331    -0.000002331          0          0
 "MBNV022059"           61.445022148     5.000009735    -0.006835700  -676.580873430  2441.624382771  4651.731541640    -0.122846986     0.013302943    -0.000002348     1.570551981          0          0
 "DRIFT_13"             62.105022148     0.660000000     0.000000000  -676.661741506  2441.633162454  4652.386509785    -0.122846986     0.013302943    -0.000002348    -0.000002348          0          0
 "MBNV022065"           67.105031883     5.000009735    -0.006835700  -677.274342869  2441.716762521  4657.348135587    -0.122845316     0.020138642    -0.000002376     1.570551981          0          0
 "DRIFT_14"             68.915031883     1.810000000     0.000000000  -677.496089092  2441.753211000  4659.144131166    -0.122845316     0.020138642    -0.000002376    -0.000002376          0          0
 "MBNV022071"           73.915041618     5.000009735    -0.006835700  -678.108597829  2441.870982570  4664.105074918    -0.122843645     0.026974342    -0.000002415     1.570551981          0          0
 "DRIFT_15"             74.575041618     0.660000000     0.000000000  -678.189441452  2441.888783477  4664.759863003    -0.122843645     0.026974342    -0.000002415    -0.000002415          0          0
 "MBNV022077"           79.575051352     5.000009735    -0.006835700  -678.801828944  2442.040721044  4669.719892895    -0.122841974     0.033810042    -0.000002466     1.570551981          0          0
 "DRIFT_16"             80.235051352     0.660000000     0.000000000  -678.882654674  2442.063031421  4670.374545054    -0.122841974     0.033810042    -0.000002466    -0.000002466          0          0
 "MBNV022083"           85.235061087     5.000009735    -0.006835700  -679.494892307  2442.249127888  4675.333429322    -0.122840302     0.040645742    -0.000002528     1.570551981          0          0
 "DRIFT_17"             85.785061087     0.550000000     0.000000000  -679.562229024  2442.271476891  4675.878834024    -0.122840302     0.040645742    -0.000002528    -0.000002528          0          0
 "QNL.022087"           88.775061087     2.990000000     0.000000000  -679.928295905  2442.392974199  4678.843852311    -0.122840302     0.040645742    -0.000002528    -0.000002528          0          0
 "DRIFT_18"             96.003061087     7.228000000     0.000000000  -680.813222801  2442.686680735  4686.011461735    -0.122840302     0.040645742    -0.000002528    -0.000002528          0          0
 "QNL.022097"           98.993061087     2.990000000     0.000000000  -681.179289683  2442.808178043  4688.976480022    -0.122840302     0.040645742    -0.000002528    -0.000002528          0          0
 "DRIFT_19"            109.109061087    10.116000000     0.000000000  -682.417795560  2443.219237162  4699.007959952    -0.122840302     0.040645742    -0.000002528    -0.000002528          0          0
 "M5_VXSV022109"       109.109061087     0.000000000     0.000000000  -682.417795560  2443.219237162  4699.007959952    -0.122840302     0.040645742    -0.000002528    -0.000002528          0          0
 "DRIFT_20"            115.588061087     6.479000000     0.000000000  -683.211022090  2443.482508419  4705.432827338    -0.122840302     0.040645742    -0.000002528    -0.000002528          0          0
 "MCAH022117"          118.088061757     2.500000670    -0.002535400  -683.513952468  2443.584093942  4707.912325990    -0.120302806     0.040644992    -0.000105637    -0.000244346          0          0
 "DRIFT_21"            118.888061757     0.800000000     0.000000000  -683.609883438  2443.616600983  4708.705887923    -0.120302806     0.040644992    -0.000105637    -0.000105637          0          0
 "MCAH022120"          121.388062426     2.500000670    -0.002535400  -683.906521140  2443.718184631  4711.186147352    -0.117765311     0.040644241    -0.000208744    -0.000244346          0          0
 "DRIFT_22"            122.188062426     0.800000000     0.000000000  -684.000438146  2443.750691073  4711.979950178    -0.117765311     0.040644241    -0.000208744    -0.000208744          0          0
 "MCAH022123"          124.688063096     2.500000670    -0.002535400  -684.290781262  2443.852272847  4714.460954414    -0.115227815     0.040643491    -0.000311850    -0.000244346          0          0
 "DRIFT_23"            125.488063096     0.800000000     0.000000000  -684.382683700  2443.884778689  4715.254993023    -0.115227815     0.040643491    -0.000311850    -0.000311850          0          0
 "MCAH022127"          127.988063766     2.500000670    -0.002535400  -684.666730359  2443.986358590  4717.736726091    -0.112690320     0.040642741    -0.000414953    -0.000244346          0          0
 "DRIFT_24"            130.515063766     2.527000000     0.000000000  -684.950661797  2444.089034523  4720.245624174    -0.112690320     0.040642741    -0.000414953    -0.000414953          0          0
 "QNL.022132"          133.505063766     2.990000000     0.000000000  -685.286615497  2444.210522866  4723.214205602    -0.112690320     0.040642741    -0.000414953    -0.000414953          0          0
 "DRIFT_25"            134.685063766     1.180000000     0.000000000  -685.419199232  2444.258468098  4724.385752787    -0.112690320     0.040642741    -0.000414953    -0.000414953          0          0
 "M6_LSXV022134"       134.685063766     0.000000000     0.000000000  -685.419199232  2444.258468098  4724.385752787    -0.112690320     0.040642741    -0.000414953    -0.000414953          0          0
 "DRIFT_26"            136.032063766     1.347000000     0.000000000  -685.570546936  2444.313198800  4725.723103685    -0.112690320     0.040642741    -0.000414953    -0.000414953          0          0
 "MCAH022137"          138.532064435     2.500000670    -0.002535400  -685.848295309  2444.414776826  4728.205549605    -0.110152825     0.040641991    -0.000518054    -0.000244346          0          0
 "DRIFT_27"            139.332064435     0.800000000     0.000000000  -685.936166848  2444.447281469  4729.000044438    -0.110152825     0.040641991    -0.000518054    -0.000518054          0          0
 "MCAH022141"          141.832065105     2.500000670    -0.002535400  -686.207615148  2444.548857621  4731.483187226    -0.107615329     0.040641241    -0.000621154    -0.000244346          0          0
 "DRIFT_28"            142.632065105     0.800000000     0.000000000  -686.293470381  2444.581361664  4732.277902500    -0.107615329     0.040641241    -0.000621154    -0.000621154          0          0
 "MCAH022144"          145.132065775     2.500000670    -0.002535400  -686.558616859  2444.682935943  4734.761726168    -0.105077834     0.040640490    -0.000724252    -0.000244346          0          0
 "DRIFT_29"            145.932065775     0.800000000     0.000000000  -686.642455235  2444.715439386  4735.556656764    -0.105077834     0.040640490    -0.000724252    -0.000724252          0          0
 "MCAH022147"          148.432066444     2.500000670    -0.002535400  -686.901298183  2444.817011790  4738.041145318    -0.102540339     0.040639740    -0.000827347    -0.000244346          0          0
 "DRIFT_30"            165.027066444    16.595000000     0.000000000  -688.598572096  2445.491242650  4754.535347300    -0.102540339     0.040639740    -0.000827347    -0.000827347          0          0
 "QNL.022167"          168.017066444     2.990000000     0.000000000  -688.904378001  2445.612722027  4757.507186042    -0.102540339     0.040639740    -0.000827347    -0.000827347          0          0
 "DRIFT_31"            175.245066444     7.228000000     0.000000000  -689.643630537  2445.906385218  4764.691283175    -0.102540339     0.040639740    -0.000827347    -0.000827347          0          0
 "QNL.022177"          178.235066444     2.990000000     0.000000000  -689.949436443  2446.027864596  4767.663121917    -0.102540339     0.040639740    -0.000827347    -0.000827347          0          0
 "DRIFT_32"            195.175066444    16.940000000     0.000000000  -691.681995652  2446.716112306  4784.500228369    -0.102540339     0.040639740    -0.000827347    -0.000827347          0          0
 "M7_LSXH022195"       195.175066444     0.000000000     0.000000000  -691.681995652  2446.716112306  4784.500228369    -0.102540339     0.040639740    -0.000827347    -0.000827347          0          0
 "DRIFT_33"            197.545066444     2.370000000     0.000000000  -691.924390299  2446.812401980  4786.855832990    -0.102540339     0.040639740    -0.000827347    -0.000827347          0          0
 "M8_LSXH022197"       197.545066444     0.000000000     0.000000000  -691.924390299  2446.812401980  4786.855832990    -0.102540339     0.040639740    -0.000827347    -0.000827347          0          0
 "DRIFT_34"            213.785066444    16.240000000     0.000000000  -693.585356153  2447.472209703  4802.997191242    -0.102540339     0.040639740    -0.000827347    -0.000827347          0          0
 "QNL.022215"          216.775066444     2.990000000     0.000000000  -693.891162058  2447.593689080  4805.969029984    -0.102540339     0.040639740    -0.000827347    -0.000827347          0          0
 "DRIFT_35"            224.003066444     7.228000000     0.000000000  -694.630414595  2447.887352271  4813.153127117    -0.102540339     0.040639740    -0.000827347    -0.000827347          0          0
 "QNL.022225"          226.993066444     2.990000000     0.000000000  -694.936220500  2448.008831649  4816.124965859    -0.102540339     0.040639740    -0.000827347    -0.000827347          0          0
 "DRIFT_36"            257.073066444    30.080000000     0.000000000  -698.012689273  2449.230938564  4846.022259960    -0.102540339     0.040639740    -0.000827347    -0.000827347          0          0
 "M9_END_VAC"          257.073066444     0.000000000     0.000000000  -698.012689273  2449.230938564  4846.022259960    -0.102540339     0.040639740    -0.000827347    -0.000827347          0          0
 "DRIFT_37"            257.643066444     0.570000000     0.000000000  -698.070986720  2449.254096840  4846.588797781    -0.102540339     0.040639740    -0.000827347    -0.000827347          0          0
 "M10_BEGIN_VAC"       257.643066444     0.000000000     0.000000000  -698.070986720  2449.254096840  4846.588797781    -0.102540339     0.040639740    -0.000827347    -0.000827347          0          0
 "DRIFT_38"            258.515066444     0.872000000     0.000000000  -698.160171586  2449.289524939  4847.455501254    -0.102540339     0.040639740    -0.000827347    -0.000827347          0          0
 "QNL.022260"          261.505066444     2.990000000     0.000000000  -698.465977492  2449.411004317  4850.427339996    -0.102540339     0.040639740    -0.000827347    -0.000827347          0          0
 "DRIFT_39"            293.027066444    31.522000000     0.000000000  -701.689928578  2450.691697607  4881.757875390    -0.102540339     0.040639740    -0.000827347    -0.000827347          0          0
 "QNL.022295"          296.017066444     2.990000000     0.000000000  -701.995734483  2450.813176985  4884.729714132    -0.102540339     0.040639740    -0.000827347    -0.000827347          0          0
 "DRIFT_40"            303.245066444     7.228000000     0.000000000  -702.734987019  2451.106840175  4891.913811265    -0.102540339     0.040639740    -0.000827347    -0.000827347          0          0
 "QNL.022305"          306.235066444     2.990000000     0.000000000  -703.040792925  2451.228319553  4894.885650007    -0.102540339     0.040639740    -0.000827347    -0.000827347          0          0
 "DRIFT_41"            306.785066444     0.550000000     0.000000000  -703.097044847  2451.250665258  4895.432309308    -0.102540339     0.040639740    -0.000827347    -0.000827347          0          0
 "MBNV022309"          311.785076215     5.000009770     0.006848200  -703.608498323  2451.436700509  4900.402601676    -0.102542013     0.033791540    -0.000827285     1.570551981          0          0
 "DRIFT_42"            312.445076215     0.660000000     0.000000000  -703.676018943  2451.458998681  4901.058760009    -0.102542013     0.033791540    -0.000827285    -0.000827285          0          0
 "MBNV022315"          317.445085985     5.000009770     0.006848200  -704.187599157  2451.610812548  4906.030202278    -0.102543687     0.026943341    -0.000827234     1.570551981          0          0
 "DRIFT_43"            318.105085985     0.660000000     0.000000000  -704.255134922  2451.628593001  4906.686497010    -0.102543687     0.026943341    -0.000827234    -0.000827234          0          0
 "MBNV022321"          323.105095755     5.000009770     0.006848200  -704.766817884  2451.746178363  4911.658856031    -0.102545361     0.020095141    -0.000827195     1.570551981          0          0
 "DRIFT_44"            324.585095755     1.480000000     0.000000000  -704.918288584  2451.775917169  4913.130784096    -0.102545361     0.020095141    -0.000827195    -0.000827195          0          0
 "M11_BBS_022325"      324.585095755     0.000000000     0.000000000  -704.918288584  2451.775917169  4913.130784096    -0.102545361     0.020095141    -0.000827195    -0.000827195          0          0
 "DRIFT_45"            324.915095755     0.330000000     0.000000000  -704.952062456  2451.782548120  4913.458984273    -0.102545361     0.020095141    -0.000827195    -0.000827195          0          0
 "MBNV022327"          329.915105526     5.000009770     0.006848200  -705.463824171  2451.865899463  4918.432026853    -0.102547034     0.013246941    -0.000827167     1.570551981          0          0
 "DRIFT_46"            330.575105526     0.660000000     0.000000000  -705.531380727  2451.874642188  4919.088502044    -0.102547034     0.013246941    -0.000827167    -0.000827167          0          0
 "MBNV022333"          335.575115296     5.000009770     0.006848200  -706.043197195  2451.923755603  4924.061994959    -0.102548708     0.006398741    -0.000827151     1.570551981          0          0
 "DRIFT_47"            336.235115296     0.660000000     0.000000000  -706.110759395  2451.927978744  4924.718514200    -0.102548708     0.006398741    -0.000827151    -0.000827151          0          0
 "MBNV022339"          341.235125067     5.000009770     0.006848200  -706.622606614  2451.942851928  4929.692224205    -0.102550381    -0.000449459    -0.000827146     1.570551981          0          0
 "DRIFT_48"            341.785125067     0.550000000     0.000000000  -706.678910509  2451.942604726  4930.239334624    -0.102550381    -0.000449459    -0.000827146    -0.000827146          0          0
 "QNL.022343"          344.775125067     2.990000000     0.000000000  -706.984998958  2451.941260844  4933.213625809    -0.102550381    -0.000449459    -0.000827146    -0.000827146          0          0
 "DRIFT_49"            352.003125067     7.228000000     0.000000000  -707.724934513  2451.938012157  4940.403651457    -0.102550381    -0.000449459    -0.000827146    -0.000827146          0          0
 "QNL.022353"          354.993125067     2.990000000     0.000000000  -708.031022962  2451.936668276  4943.377942643    -0.102550381    -0.000449459    -0.000827146    -0.000827146          0          0
 "DRIFT_50"            368.685125067    13.692000000     0.000000000  -709.432682842  2451.930514288  4956.998007830    -0.102550381    -0.000449459    -0.000827146    -0.000827146          0          0
 "QNL.022370"          371.675125067     2.990000000     0.000000000  -709.738771291  2451.929170407  4959.972299016    -0.102550381    -0.000449459    -0.000827146    -0.000827146          0          0
 "DRIFT_51"            373.155125067     1.480000000     0.000000000  -709.890279955  2451.928505208  4961.444523415    -0.102550381    -0.000449459    -0.000827146    -0.000827146          0          0
 "M12_END_VAC"         373.155125067     0.000000000     0.000000000  -709.890279955  2451.928505208  4961.444523415    -0.102550381    -0.000449459    -0.000827146    -0.000827146          0          0
 "DRIFT_52"            373.755125067     0.600000000     0.000000000  -709.951702386  2451.928235533  4962.041371145    -0.102550381    -0.000449459    -0.000827146    -0.000827146          0          0
 "M13_BEGIN_VAC"       373.755125067     0.000000000     0.000000000  -709.951702386  2451.928235533  4962.041371145    -0.102550381    -0.000449459    -0.000827146    -0.000827146          0          0
 "DRIFT_53"            374.155125067     0.400000000     0.000000000  -709.992650673  2451.928055750  4962.439269631    -0.102550381    -0.000449459    -0.000827146    -0.000827146          0          0
 "MBNH022377"          379.155135867     5.000010800     0.007200000  -710.522406345  2451.925812869  4967.411125813    -0.109750382    -0.000447688    -0.000830375    -0.000244346          0          0
 "DRIFT_54"            379.815135867     0.660000000     0.000000000  -710.594696261  2451.925517395  4968.067154837    -0.109750382    -0.000447688    -0.000830375    -0.000830375          0          0
 "MBNH022382"          384.815146667     5.000010800     0.007200000  -711.160235260  2451.923283369  4973.035067946    -0.116950382    -0.000445917    -0.000833592    -0.000244346          0          0
 "DRIFT_55"            387.415146667     2.600000000     0.000000000  -711.463613547  2451.922123986  4975.617307336    -0.116950382    -0.000445917    -0.000833592    -0.000833592          0          0
 "MCWH022389"          390.415146667     3.000000000    -0.000000000  -711.813665417  2451.920786235  4978.596814326    -0.116950382    -0.000445917    -0.000833592    -0.000244346          0          0
 "DRIFT_56"            391.095146667     0.680000000     0.000000000  -711.893010508  2451.920483012  4979.272169243    -0.116950382    -0.000445917    -0.000833592    -0.000833592          0          0
 "MBNH022394"          396.095157467     5.000010800     0.007200000  -712.494303516  2451.918257840  4984.235881742    -0.124150383    -0.000444146    -0.000836797    -0.000244346          0          0
 "DRIFT_57"            396.975157467     0.880000000     0.000000000  -712.603275401  2451.917866992  4985.109108502    -0.124150383    -0.000444146    -0.000836797    -0.000836797          0          0
 "MBNT022399"          401.975168267     5.000010800     0.007200000  -713.240291248  2451.915650674  4990.068363073    -0.131350383    -0.000442375    -0.000839988    -0.000244346          0          0
 "DRIFT_58"            402.910168267     0.935000000     0.000000000  -713.362751002  2451.915237054  4990.995308831    -0.131350383    -0.000442375    -0.000839988    -0.000839988          0          0
 "M14_END_VAC"         402.910168267     0.000000000     0.000000000  -713.362751002  2451.915237054  4990.995308831    -0.131350383    -0.000442375    -0.000839988    -0.000839988          0          0
 "DRIFT_59"            403.310168267     0.400000000     0.000000000  -713.415140202  2451.915060104  4991.391863165    -0.131350383    -0.000442375    -0.000839988    -0.000839988          0          0
 "M15_TCX_022403"      403.310168267     0.000000000     0.000000000  -713.415140202  2451.915060104  4991.391863165    -0.131350383    -0.000442375    -0.000839988    -0.000839988          0          0
 "DRIFT_60"            407.010168267     3.700000000     0.000000000  -713.899740301  2451.913423315  4995.059990762    -0.131350383    -0.000442375    -0.000839988    -0.000839988          0          0
 "M16_BEGIN_VAC"       407.010168267     0.000000000     0.000000000  -713.899740301  2451.913423315  4995.059990762    -0.131350383    -0.000442375    -0.000839988    -0.000839988          0          0
 "DRIFT_61"            414.103168267     7.093000000     0.000000000  -714.828731787  2451.910285548  5002.091890503    -0.131350383    -0.000442375    -0.000839988    -0.000839988          0          0
 "M17_BEGIN_VAC"       414.103168267     0.000000000     0.000000000  -714.828731787  2451.910285548  5002.091890503    -0.131350383    -0.000442375    -0.000839988    -0.000839988          0          0
 "DRIFT_62"            421.027168267     6.924000000     0.000000000  -715.735588836  2451.907222542  5008.956246038    -0.131350383    -0.000442375    -0.000839988    -0.000839988          0          0
 "QNL.022423"          424.017168267     2.990000000     0.000000000  -716.127198105  2451.905899840  5011.920489691    -0.131350383    -0.000442375    -0.000839988    -0.000839988          0          0
 "DRIFT_63"            430.760168267     6.743000000     0.000000000  -717.010349042  2451.902916904  5018.605404389    -0.131350383    -0.000442375    -0.000839988    -0.000839988          0          0
 "MCB.022432"          433.260168267     2.500000000    -0.000000000  -717.337781541  2451.901810966  5021.083868982    -0.131350383    -0.000442375    -0.000839988     1.570551981          0          0
 "DRIFT_64"            442.565168267     9.305000000     0.000000000  -718.556485302  2451.897694665  5030.308714194    -0.131350383    -0.000442375    -0.000839988    -0.000839988          0          0
 "QNL.022444"          445.555168267     2.990000000     0.000000000  -718.948094571  2451.896371963  5033.272957847    -0.131350383    -0.000442375    -0.000839988    -0.000839988          0          0
 "DRIFT_65"            452.685168267     7.130000000     0.000000000  -719.881932058  2451.893217828  5040.341538864    -0.131350383    -0.000442375    -0.000839988    -0.000839988          0          0
 "M18_END_VAC"         452.685168267     0.000000000     0.000000000  -719.881932058  2451.893217828  5040.341538864    -0.131350383    -0.000442375    -0.000839988    -0.000839988          0          0
 "DRIFT_66"            466.195168267    13.510000000     0.000000000  -721.651377283  2451.887241338  5053.735161521    -0.131350383    -0.000442375    -0.000839988    -0.000839988          0          0
 "M19_BEGIN_VAC"       466.195168267     0.000000000     0.000000000  -721.651377283  2451.887241338  5053.735161521    -0.131350383    -0.000442375    -0.000839988    -0.000839988          0          0
 "DRIFT_67"            473.597168267     7.402000000     0.000000000  -722.620839426  2451.883966877  5061.073399486    -0.131350383    -0.000442375    -0.000839988    -0.000839988          0          0
 "QNL.022476"          476.587168267     2.990000000     0.000000000  -723.012448695  2451.882644175  5064.037643138    -0.131350383    -0.000442375    -0.000839988    -0.000839988          0          0
 "DRIFT_68"            477.027168267     0.440000000     0.000000000  -723.070076815  2451.882449530  5064.473852907    -0.131350383    -0.000442375    -0.000839988    -0.000839988          0          0
 "QNL.022479"          480.017168267     2.990000000     0.000000000  -723.461686084  2451.881126828  5067.438096559    -0.131350383    -0.000442375    -0.000839988    -0.000839988          0          0
 "DRIFT_69"            480.337168267     0.320000000     0.000000000  -723.503597443  2451.880985268  5067.755340027    -0.131350383    -0.000442375    -0.000839988    -0.000839988          0          0
 "M20_END_VAC"         480.337168267     0.000000000     0.000000000  -723.503597443  2451.880985268  5067.755340027    -0.131350383    -0.000442375    -0.000839988    -0.000839988          0          0
 "DRIFT_70"            480.737168267     0.400000000     0.000000000  -723.555986643  2451.880808318  5068.151894362    -0.131350383    -0.000442375    -0.000839988    -0.000839988          0          0
 "M21_BEGIN_VAC"       480.737168267     0.000000000     0.000000000  -723.555986643  2451.880808318  5068.151894362    -0.131350383    -0.000442375    -0.000839988    -0.000839988          0          0
 "DRIFT_71"            487.492168267     6.755000000     0.000000000  -724.440709256  2451.877820074  5074.848705690    -0.131350383    -0.000442375    -0.000839988    -0.000839988          0          0
 "M22_END_VAC"         487.492168267     0.000000000     0.000000000  -724.440709256  2451.877820074  5074.848705690    -0.131350383    -0.000442375    -0.000839988    -0.000839988          0          0
 "DRIFT_72"            487.782168267     0.290000000     0.000000000  -724.478691426  2451.877691785  5075.136207583    -0.131350383    -0.000442375    -0.000839988    -0.000839988          0          0
 "M23_BEGIN_VAC"       487.782168267     0.000000000     0.000000000  -724.478691426  2451.877691785  5075.136207583    -0.131350383    -0.000442375    -0.000839988    -0.000839988          0          0
 "DRIFT_73"            499.067168267    11.285000000     0.000000000  -725.956721726  2451.872699581  5086.323996753    -0.131350383    -0.000442375    -0.000839988    -0.000839988          0          0
 "M24_TABLE"           499.067168267     0.000000000     0.000000000  -725.956721726  2451.872699581  5086.323996753    -0.131350383    -0.000442375    -0.000839988    -0.000839988          0          0
 "DRIFT_74"            515.177168267    16.110000000     0.000000000  -728.066696750  2451.865572916  5102.295222586    -0.131350383    -0.000442375    -0.000839988    -0.000839988          0          0
 "M25_END_VAC"         515.177168267     0.000000000     0.000000000  -728.066696750  2451.865572916  5102.295222586    -0.131350383    -0.000442375    -0.000839988    -0.000839988          0          0
 "DRIFT_75"            517.432168267     2.255000000     0.000000000  -728.362040864  2451.864575360  5104.530797648    -0.131350383    -0.000442375    -0.000839988    -0.000839988          0          0
 "M26_XTDV_NOISE"      517.432168267     0.000000000     0.000000000  -728.362040864  2451.864575360  5104.530797648    -0.131350383    -0.000442375    -0.000839988    -0.000839988          0          0
 "DRIFT_76"            520.732168267     3.300000000     0.000000000  -728.794251763  2451.863115522  5107.802370910    -0.131350383    -0.000442375    -0.000839988    -0.000839988          0          0
 "M27_XTDV022520"      520.732168267     0.000000000     0.000000000  -728.794251763  2451.863115522  5107.802370910    -0.131350383    -0.000442375    -0.000839988    -0.000839988          0          0
 "DRIFT_77"            520.962168267     0.230000000     0.000000000  -728.824375553  2451.863013775  5108.030389652    -0.131350383    -0.000442375    -0.000839988    -0.000839988          0          0
 "M28_BEGIN_VAC"       520.962168267     0.000000000     0.000000000  -728.824375553  2451.863013775  5108.030389652    -0.131350383    -0.000442375    -0.000839988    -0.000839988          0          0
 "DRIFT_78"            524.452168267     3.490000000     0.000000000  -729.281471321  2451.861469886  5111.490326223    -0.131350383    -0.000442375    -0.000839988    -0.000839988          0          0
 "QNL.022526"          527.442168267     2.990000000     0.000000000  -729.673080590  2451.860147184  5114.454569876    -0.131350383    -0.000442375    -0.000839988    -0.000839988          0          0
 "DRIFT_79"            544.442168267    17.000000000     0.000000000  -731.899621584  2451.852626805  5131.308129104    -0.131350383    -0.000442375    -0.000839988    -0.000839988          0          0
 "QNL.022546"          547.432168267     2.990000000     0.000000000  -732.291230853  2451.851304103  5134.272372756    -0.131350383    -0.000442375    -0.000839988    -0.000839988          0          0
 "DRIFT_80"            552.972168267     5.540000000     0.000000000  -733.016821270  2451.848853345  5139.764650293    -0.131350383    -0.000442375    -0.000839988    -0.000839988          0          0
 "M29_XSCI022553"      552.972168267     0.000000000     0.000000000  -733.016821270  2451.848853345  5139.764650293    -0.131350383    -0.000442375    -0.000839988    -0.000839988          0          0
 "DRIFT_81"            553.072168267     0.100000000     0.000000000  -733.029918570  2451.848809107  5139.863788876    -0.131350383    -0.000442375    -0.000839988    -0.000839988          0          0
 "M30_XWCA022553"      553.072168267     0.000000000     0.000000000  -733.029918570  2451.848809107  5139.863788876    -0.131350383    -0.000442375    -0.000839988    -0.000839988          0          0
 "DRIFT_82"            555.979168267     2.907000000     0.000000000  -733.410657080  2451.847523123  5142.745747504    -0.131350383    -0.000442375    -0.000839988    -0.000839988          0          0
 "MBPL022557"          557.979168267     2.000000000     0.000000000  -733.672603079  2451.846638372  5144.728519178    -0.131350383    -0.000442375    -0.000839988    -0.000000000          0          0
 "DRIFT_83"            558.992168267     1.013000000     0.000000000  -733.805278728  2451.846190246  5145.732793031    -0.131350383    -0.000442375    -0.000839988    -0.000839988          0          0
 "MBPL022560"          560.992168267     2.000000000     0.000000000  -734.067224727  2451.845305496  5147.715564705    -0.131350383    -0.000442375    -0.000839988    -0.000000000          0          0
 "DRIFT_84"            602.495168267    41.503000000     0.000000000  -739.502997130  2451.826945597  5188.861051095    -0.131350383    -0.000442375    -0.000839988    -0.000839988          0          0
 "M31_XTDV022601"      602.495168267     0.000000000     0.000000000  -739.502997130  2451.826945597  5188.861051095    -0.131350383    -0.000442375    -0.000839988    -0.000839988          0          0
 "DRIFT_85"            619.845168267    17.350000000     0.000000000  -741.775378674  2451.819270387  5206.061595366    -0.131350383    -0.000442375    -0.000839988    -0.000839988          0          0
 "M32_GIF_SOURCE"      619.845168267     0.000000000     0.000000000  -741.775378674  2451.819270387  5206.061595366    -0.131350383    -0.000442375    -0.000839988    -0.000839988          0          0
 "DRIFT_86"            630.495168267    10.650000000     0.000000000  -743.170241119  2451.814559091  5216.619854530    -0.131350383    -0.000442375    -0.000839988    -0.000839988          0          0
 "M33_XTDV022628"      630.495168267     0.000000000     0.000000000  -743.170241119  2451.814559091  5216.619854530    -0.131350383    -0.000442375    -0.000839988    -0.000839988          0          0
 "DRIFT_87"            632.295168267     1.800000000     0.000000000  -743.405992519  2451.813762816  5218.404349036    -0.131350383    -0.000442375    -0.000839988    -0.000839988          0          0
 "M34_XCIO022634"      632.295168267     0.000000000     0.000000000  -743.405992519  2451.813762816  5218.404349036    -0.131350383    -0.000442375    -0.000839988    -0.000839988          0          0
 "DRIFT_88"            632.895168267     0.600000000     0.000000000  -743.484576319  2451.813497391  5218.999180538    -0.131350383    -0.000442375    -0.000839988    -0.000839988          0          0
 "MBPL022635"          634.895183680     2.000015413     0.013600000  -743.759999006  2451.812615984  5220.980125153    -0.144950384    -0.000439011    -0.000845982    -0.000244346          0          0
 "DRIFT_89"            651.635183680    16.740000000     0.000000000  -746.177980188  2451.805266935  5237.544572412    -0.144950384    -0.000439011    -0.000845982    -0.000845982          0          0
 "MBPL022652"          653.635199093     2.000015413     0.013600000  -746.480317423  2451.804392256  5239.521588201    -0.158550385    -0.000435648    -0.000851929    -0.000244346          0          0
 "DRIFT_90"            663.035199093     9.400000000     0.000000000  -747.964454519  2451.800297167  5248.803684964    -0.158550385    -0.000435648    -0.000851929    -0.000851929          0          0
 "M35_VXBO"            663.035199093     0.000000000     0.000000000  -747.964454519  2451.800297167  5248.803684964    -0.158550385    -0.000435648    -0.000851929    -0.000851929          0          0
 "DRIFT_91"            681.226199093    18.191000000     0.000000000  -750.836575575  2451.792372300  5266.766517113    -0.158550385    -0.000435648    -0.000851929    -0.000851929          0          0
 "B2MCONV$END"         681.226199093     0.000000000     0.000000000  -750.836575575  2451.792372300  5266.766517113    -0.158550385    -0.000435648    -0.000851929    -0.000851929          0          0
