pymadx.Tfs.Load> normal file
Momentum 120.0 GeV/c
MSN.X0410022 	 -698.0 A
MSN.X0410029 	 -869.0 A
QSL.X0410033 	 -427.19 A
QNL.X0410040 	 -40.28 A
QNL.X0410050 	 -56.14 A
MBNV.X0410055 	 565.45 A
MBNV.X0410061 	 565.45 A
MBNV.X0410067 	 565.45 A
MBNV.X0410073 	 565.45 A
QNL.X0410078 	 -62.47 A
QNL.X0410096 	 149.59 A
QTS.X0410106 	 -211.57 A
MBXHC.X0410117 	 -608.99 A
MBXHC.X0410121 	 -608.99 A
MBXHC.X0410124 	 -608.99 A
LSX.X0410129 	 0.00 A
MCXCA.X0410130 	 0.00 A
MBXHC.X0410132 	 -608.99 A
MBXHC.X0410135 	 -608.99 A
MBXHC.X0410139 	 -608.99 A
QTS.X0410151 	 -211.57 A
QNL.X0410160 	 149.62 A
QNL.X0410178 	 62.69 A
LSX.X0410193 	 -0.00 A
MCXCA.X0410194 	 0.00 A
MCXCA.X0410195 	 0.00 A
QNL.X0410206 	 62.69 A
QNL.X0410224 	 149.62 A
QTS.X0410234 	 -211.57 A
QTS.X0410279 	 -211.57 A
QNL.X0410288 	 149.59 A
QNL.X0410306 	 -62.47 A
MBNV.X0410311 	 566.46 A
MBNV.X0410317 	 566.46 A
MBNV.X0410323 	 566.46 A
MBNV.X0410329 	 566.46 A
QNL.X0410334 	 -62.47 A
QNL.X0410352 	 149.59 A
QTS.X0410362 	 214.69 A
MBNH.X0410375 	 -595.56 A
MBNH.X0410380 	 -595.56 A
MCXCA.X0410385 	 0.00 A
MBNH.X0410388 	 -595.56 A
MBNH.X0410393 	 -595.56 A
QTS.X0410397 	 -75.95 A
QNL.X0410426 	 -129.17 A
QWL.X0410434 	 163.31 A
QWL.X0410453 	 169.35 A
QNL.X0410461 	 -126.63 A
MCXCA.X0410473 	 0.00 A
MCXCA.X0410474 	 -0.00 A
